<?xml version="1.0" encoding="UTF-8" standalone="no"?>
<svg width="17px" height="16px" viewBox="0 0 17 16" version="1.1" xmlns="http://www.w3.org/2000/svg" xmlns:xlink="http://www.w3.org/1999/xlink">
    <!-- Generator: Sketch 49 (51002) - http://www.bohemiancoding.com/sketch -->
    <title>Shape</title>
    <desc>Created with Sketch.</desc>
    <defs>
        <path d="M14,10.825641 L14,9.42564103 L8.10526316,5.92564103 L8.10526316,2.07564103 C8.10526316,1.49464103 7.61157895,1.02564103 7,1.02564103 C6.38842105,1.02564103 5.89473684,1.49464103 5.89473684,2.07564103 L5.89473684,5.92564103 L0,9.42564103 L0,10.825641 L5.89473684,9.07564103 L5.89473684,12.925641 L4.42105263,13.975641 L4.42105263,15.025641 L7,14.325641 L9.57894737,15.025641 L9.57894737,13.975641 L8.10526316,12.925641 L8.10526316,9.07564103 L14,10.825641 Z" id="path-1"></path>
    </defs>
    <g id="Page-1" stroke="none" stroke-width="1" fill="none" fill-rule="evenodd">
        <g id="1024" transform="translate(-777.000000, -199.000000)" fill-rule="nonzero">
            <g id="Ticket" transform="translate(355.000000, 161.000000)">
                <g id="ic_airplanemode_active_black_24px" transform="translate(431.500000, 46.000000) rotate(-270.000000) translate(-431.500000, -46.000000) translate(424.500000, 38.500000)">
                    <g id="Shape">
                        <use fill="#D2D5D6" fill-rule="evenodd" xlink:href="#path-1"></use>
                        <path stroke="#FFFFFF" stroke-width="1" d="M8.60526316,9.74564702 L8.60526316,12.6679578 L10.0789474,13.7179578 L10.0789474,15.6794464 L7,14.8437321 L3.92105263,15.6794464 L3.92105263,13.7179578 L5.39473684,12.6679578 L5.39473684,9.74564702 L-0.5,11.495647 L-0.5,9.14102246 L5.39473684,5.64102246 L5.39473684,2.07564103 C5.39473684,1.21260008 6.11785163,0.525641026 7,0.525641026 C7.88214837,0.525641026 8.60526316,1.21260008 8.60526316,2.07564103 L8.60526316,5.64102246 L14.5,9.14102246 L14.5,11.495647 L8.60526316,9.74564702 Z"></path>
                    </g>
                </g>
            </g>
        </g>
    </g>
</svg>